{
    "AWSTemplateFormatVersion": "2010-09-09",
    "Description": "AWS CloudFormation Sample Template: Sample template which will create an s3 bucket with versioning enabled and a bucket policy to enable cross account acccess. The template requires you to provide an AWS account ID to provide cross account access to, and a globally unique name for an s3 bucket.",
    "Parameters": {
        "BucketName": {
            "Type": "String",
            "Description": "The name of the S3 Bucket to create, make this unique"
        },
        "PublisherAccountID": {
            "Type": "String",
            "Description": "The AWS account ID with whom you are sharing access"
        },
        "Status": {
            "Type": "String",
            "Description": "VersioningConfiguration status",
            "Default": "Disabled"
        }
    },
    "Mappings": {
        "StatusMap": {
            "status-disabled": {"STATUS": "Disabled" }, "status-enabled": {"STATUS": "Enabled"}
        }
    },
    "Resources": {
        "VersioningS3BucketParam": {
            "Type": "AWS::S3::Bucket",
            "Properties": {
                "BucketName": {
                    "Ref": "BucketName"
                },
                "VersioningConfiguration": {
                    "Status": {
                        "Ref": "Status"
                    }
                }
            }
        },
        "VersioningS3BucketMap": {
            "Type": "AWS::S3::Bucket",
            "Properties": {
                "BucketName": {
                    "Ref": "BucketName"
                },
                "VersioningConfiguration": {
                    "Status": {
                        "Fn::FindInMap": [
                            "StatusMap",
                            "status-disabled",
                            "STATUS"
                        ]
                    }
                }
            }
        }
    },
    "Outputs": {
        "Bucket": {
            "Description": "S3 Bucket Name",
            "Value": {
                "Ref": "VersioningS3BucketParam"
            }
        },
        "BucketPolicy": {
            "Description": "S3 Bucket Policy Name",
            "Value": {
                "Ref": "VersioningS3BucketParam"
            }
        }
    }
}